solid OpenSCAD_Model
  facet normal -1 0 0
    outer loop
      vertex 0 22 0
      vertex 0 12 13
      vertex 0 22 24
    endloop
  endfacet
  facet normal -1 0 0
    outer loop
      vertex 0 0 0
      vertex 0 12 13
      vertex 0 22 0
    endloop
  endfacet
  facet normal -1 -0 0
    outer loop
      vertex 0 12 13
      vertex 0 0 0
      vertex 0 8 13
    endloop
  endfacet
  facet normal -1 0 0
    outer loop
      vertex 0 0 24
      vertex 0 8 13
      vertex 0 0 0
    endloop
  endfacet
  facet normal -1 0 0
    outer loop
      vertex 0 8 13
      vertex 0 0 24
      vertex 0 8 24
    endloop
  endfacet
  facet normal -1 -0 0
    outer loop
      vertex 0 22 24
      vertex 0 12 13
      vertex 0 12 24
    endloop
  endfacet
  facet normal -0 0 1
    outer loop
      vertex 539.417 8 24
      vertex 566 0 24
      vertex 566 8 24
    endloop
  endfacet
  facet normal -0 0 1
    outer loop
      vertex 538.272 6.70806 24
      vertex 566 0 24
      vertex 539.417 8 24
    endloop
  endfacet
  facet normal -0 0 1
    outer loop
      vertex 536.482 6.02916 24
      vertex 566 0 24
      vertex 538.272 6.70806 24
    endloop
  endfacet
  facet normal 0 0 1
    outer loop
      vertex 534.582 6.25993 24
      vertex 566 0 24
      vertex 536.482 6.02916 24
    endloop
  endfacet
  facet normal -0 0 1
    outer loop
      vertex 33.4168 8 24
      vertex 533.006 7.34751 24
      vertex 532.664 8 24
    endloop
  endfacet
  facet normal 0 0 1
    outer loop
      vertex 32.2723 6.70806 24
      vertex 533.006 7.34751 24
      vertex 33.4168 8 24
    endloop
  endfacet
  facet normal 0 0 1
    outer loop
      vertex 533.006 7.34751 24
      vertex 32.2723 6.70806 24
      vertex 534.582 6.25993 24
    endloop
  endfacet
  facet normal 0 0 1
    outer loop
      vertex 30.4821 6.02916 24
      vertex 534.582 6.25993 24
      vertex 32.2723 6.70806 24
    endloop
  endfacet
  facet normal 0 0 1
    outer loop
      vertex 534.582 6.25993 24
      vertex 30.4821 6.02916 24
      vertex 566 0 24
    endloop
  endfacet
  facet normal 0 0 1
    outer loop
      vertex 0 0 24
      vertex 26.6635 8 24
      vertex 0 8 24
    endloop
  endfacet
  facet normal 0 0 1
    outer loop
      vertex 26.6635 8 24
      vertex 0 0 24
      vertex 27.006 7.34751 24
    endloop
  endfacet
  facet normal 0 0 1
    outer loop
      vertex 27.006 7.34751 24
      vertex 0 0 24
      vertex 28.5816 6.25993 24
    endloop
  endfacet
  facet normal 0 0 1
    outer loop
      vertex 30.4821 6.02916 24
      vertex 0 0 24
      vertex 566 0 24
    endloop
  endfacet
  facet normal 0 0 1
    outer loop
      vertex 28.5816 6.25993 24
      vertex 0 0 24
      vertex 30.4821 6.02916 24
    endloop
  endfacet
  facet normal 0 0 1
    outer loop
      vertex 566 22 24
      vertex 539.417 12 24
      vertex 566 12 24
    endloop
  endfacet
  facet normal 0 0 1
    outer loop
      vertex 566 22 24
      vertex 538.272 13.2919 24
      vertex 539.417 12 24
    endloop
  endfacet
  facet normal 0 0 1
    outer loop
      vertex 566 22 24
      vertex 536.482 13.9708 24
      vertex 538.272 13.2919 24
    endloop
  endfacet
  facet normal 0 0 1
    outer loop
      vertex 566 22 24
      vertex 534.582 13.7401 24
      vertex 536.482 13.9708 24
    endloop
  endfacet
  facet normal 0 0 1
    outer loop
      vertex 533.006 12.6525 24
      vertex 33.4168 12 24
      vertex 532.664 12 24
    endloop
  endfacet
  facet normal -0 0 1
    outer loop
      vertex 32.2723 13.2919 24
      vertex 533.006 12.6525 24
      vertex 534.582 13.7401 24
    endloop
  endfacet
  facet normal -0 0 1
    outer loop
      vertex 30.4821 13.9708 24
      vertex 534.582 13.7401 24
      vertex 566 22 24
    endloop
  endfacet
  facet normal 0 0 1
    outer loop
      vertex 533.006 12.6525 24
      vertex 32.2723 13.2919 24
      vertex 33.4168 12 24
    endloop
  endfacet
  facet normal 0 0 1
    outer loop
      vertex 534.582 13.7401 24
      vertex 30.4821 13.9708 24
      vertex 32.2723 13.2919 24
    endloop
  endfacet
  facet normal -0 0 1
    outer loop
      vertex 0 22 24
      vertex 30.4821 13.9708 24
      vertex 566 22 24
    endloop
  endfacet
  facet normal 0 0 1
    outer loop
      vertex 0 22 24
      vertex 28.5816 13.7401 24
      vertex 30.4821 13.9708 24
    endloop
  endfacet
  facet normal 0 0 1
    outer loop
      vertex 0 22 24
      vertex 27.006 12.6525 24
      vertex 28.5816 13.7401 24
    endloop
  endfacet
  facet normal 0 0 1
    outer loop
      vertex 0 22 24
      vertex 26.6635 12 24
      vertex 27.006 12.6525 24
    endloop
  endfacet
  facet normal 0 0 1
    outer loop
      vertex 26.6635 12 24
      vertex 0 22 24
      vertex 0 12 24
    endloop
  endfacet
  facet normal 1 0 0
    outer loop
      vertex 566 8 24
      vertex 566 0 24
      vertex 566 8 13
    endloop
  endfacet
  facet normal 1 0 0
    outer loop
      vertex 566 12 13
      vertex 566 22 24
      vertex 566 12 24
    endloop
  endfacet
  facet normal 1 0 0
    outer loop
      vertex 566 22 24
      vertex 566 12 13
      vertex 566 22 0
    endloop
  endfacet
  facet normal 1 0 0
    outer loop
      vertex 566 0 0
      vertex 566 12 13
      vertex 566 8 13
    endloop
  endfacet
  facet normal 1 0 0
    outer loop
      vertex 566 12 13
      vertex 566 0 0
      vertex 566 22 0
    endloop
  endfacet
  facet normal 1 0 0
    outer loop
      vertex 566 0 0
      vertex 566 8 13
      vertex 566 0 24
    endloop
  endfacet
  facet normal 0 0 -1
    outer loop
      vertex 566 0 0
      vertex 540 10 0
      vertex 566 22 0
    endloop
  endfacet
  facet normal 0 0 -1
    outer loop
      vertex 566 0 0
      vertex 539.542 8.14111 0
      vertex 540 10 0
    endloop
  endfacet
  facet normal 0 0 -1
    outer loop
      vertex 566 0 0
      vertex 538.272 6.70806 0
      vertex 539.542 8.14111 0
    endloop
  endfacet
  facet normal 0 0 -1
    outer loop
      vertex 566 0 0
      vertex 536.482 6.02916 0
      vertex 538.272 6.70806 0
    endloop
  endfacet
  facet normal 0 0 -1
    outer loop
      vertex 566 0 0
      vertex 534.582 6.25993 0
      vertex 536.482 6.02916 0
    endloop
  endfacet
  facet normal 0 0 -1
    outer loop
      vertex 532.116 9.04274 0
      vertex 34 10 0
      vertex 532.116 10.9573 0
    endloop
  endfacet
  facet normal 0 0 -1
    outer loop
      vertex 33.5418 8.14111 0
      vertex 532.116 9.04274 0
      vertex 533.006 7.34751 0
    endloop
  endfacet
  facet normal 0 0 -1
    outer loop
      vertex 32.2723 6.70806 0
      vertex 533.006 7.34751 0
      vertex 534.582 6.25993 0
    endloop
  endfacet
  facet normal 0 0 -1
    outer loop
      vertex 30.4821 6.02916 0
      vertex 534.582 6.25993 0
      vertex 566 0 0
    endloop
  endfacet
  facet normal -0 0 -1
    outer loop
      vertex 532.116 9.04274 0
      vertex 33.5418 8.14111 0
      vertex 34 10 0
    endloop
  endfacet
  facet normal -0 0 -1
    outer loop
      vertex 533.006 7.34751 0
      vertex 32.2723 6.70806 0
      vertex 33.5418 8.14111 0
    endloop
  endfacet
  facet normal -0 0 -1
    outer loop
      vertex 534.582 6.25993 0
      vertex 30.4821 6.02916 0
      vertex 32.2723 6.70806 0
    endloop
  endfacet
  facet normal -0 0 -1
    outer loop
      vertex 26.1162 9.04274 0
      vertex 0 0 0
      vertex 26.1162 10.9573 0
    endloop
  endfacet
  facet normal -0 0 -1
    outer loop
      vertex 27.006 7.34751 0
      vertex 0 0 0
      vertex 26.1162 9.04274 0
    endloop
  endfacet
  facet normal -0 0 -1
    outer loop
      vertex 28.5816 6.25993 0
      vertex 0 0 0
      vertex 27.006 7.34751 0
    endloop
  endfacet
  facet normal -0 0 -1
    outer loop
      vertex 30.4821 6.02916 0
      vertex 0 0 0
      vertex 28.5816 6.25993 0
    endloop
  endfacet
  facet normal 0 0 -1
    outer loop
      vertex 0 0 0
      vertex 30.4821 6.02916 0
      vertex 566 0 0
    endloop
  endfacet
  facet normal 0 0 -1
    outer loop
      vertex 539.542 11.8589 0
      vertex 566 22 0
      vertex 540 10 0
    endloop
  endfacet
  facet normal 0 0 -1
    outer loop
      vertex 538.272 13.2919 0
      vertex 566 22 0
      vertex 539.542 11.8589 0
    endloop
  endfacet
  facet normal 0 0 -1
    outer loop
      vertex 536.482 13.9708 0
      vertex 566 22 0
      vertex 538.272 13.2919 0
    endloop
  endfacet
  facet normal 0 0 -1
    outer loop
      vertex 534.582 13.7401 0
      vertex 566 22 0
      vertex 536.482 13.9708 0
    endloop
  endfacet
  facet normal 0 0 -1
    outer loop
      vertex 33.5418 11.8589 0
      vertex 532.116 10.9573 0
      vertex 34 10 0
    endloop
  endfacet
  facet normal 0 0 -1
    outer loop
      vertex 532.116 10.9573 0
      vertex 33.5418 11.8589 0
      vertex 533.006 12.6525 0
    endloop
  endfacet
  facet normal 0 0 -1
    outer loop
      vertex 32.2723 13.2919 0
      vertex 533.006 12.6525 0
      vertex 33.5418 11.8589 0
    endloop
  endfacet
  facet normal 0 0 -1
    outer loop
      vertex 533.006 12.6525 0
      vertex 32.2723 13.2919 0
      vertex 534.582 13.7401 0
    endloop
  endfacet
  facet normal 0 0 -1
    outer loop
      vertex 30.4821 13.9708 0
      vertex 534.582 13.7401 0
      vertex 32.2723 13.2919 0
    endloop
  endfacet
  facet normal 0 0 -1
    outer loop
      vertex 534.582 13.7401 0
      vertex 30.4821 13.9708 0
      vertex 566 22 0
    endloop
  endfacet
  facet normal 0 0 -1
    outer loop
      vertex 0 22 0
      vertex 26.1162 10.9573 0
      vertex 0 0 0
    endloop
  endfacet
  facet normal 0 0 -1
    outer loop
      vertex 26.1162 10.9573 0
      vertex 0 22 0
      vertex 27.006 12.6525 0
    endloop
  endfacet
  facet normal 0 0 -1
    outer loop
      vertex 30.4821 13.9708 0
      vertex 0 22 0
      vertex 566 22 0
    endloop
  endfacet
  facet normal 0 0 -1
    outer loop
      vertex 28.5816 13.7401 0
      vertex 0 22 0
      vertex 30.4821 13.9708 0
    endloop
  endfacet
  facet normal 0 0 -1
    outer loop
      vertex 27.006 12.6525 0
      vertex 0 22 0
      vertex 28.5816 13.7401 0
    endloop
  endfacet
  facet normal 0 -1 0
    outer loop
      vertex 0 0 0
      vertex 566 0 24
      vertex 0 0 24
    endloop
  endfacet
  facet normal 0 -1 -0
    outer loop
      vertex 566 0 24
      vertex 0 0 0
      vertex 566 0 0
    endloop
  endfacet
  facet normal 0 1 -0
    outer loop
      vertex 566 22 0
      vertex 0 22 24
      vertex 566 22 24
    endloop
  endfacet
  facet normal 0 1 0
    outer loop
      vertex 0 22 24
      vertex 566 22 0
      vertex 0 22 0
    endloop
  endfacet
  facet normal 0 -1 0
    outer loop
      vertex 0 12 13
      vertex 26.6635 12 24
      vertex 0 12 24
    endloop
  endfacet
  facet normal 0 -1 -0
    outer loop
      vertex 26.6635 12 24
      vertex 0 12 13
      vertex 26.6635 12 13
    endloop
  endfacet
  facet normal 0 -1 0
    outer loop
      vertex 539.417 12 13
      vertex 566 12 24
      vertex 539.417 12 24
    endloop
  endfacet
  facet normal 0 -1 -0
    outer loop
      vertex 566 12 24
      vertex 539.417 12 13
      vertex 566 12 13
    endloop
  endfacet
  facet normal 0 -1 0
    outer loop
      vertex 33.4168 12 13
      vertex 532.664 12 24
      vertex 33.4168 12 24
    endloop
  endfacet
  facet normal 0 -1 -0
    outer loop
      vertex 532.664 12 24
      vertex 33.4168 12 13
      vertex 532.664 12 13
    endloop
  endfacet
  facet normal 0 0 1
    outer loop
      vertex 26.1162 10.9573 13
      vertex 0 12 13
      vertex 26.1162 9.04274 13
    endloop
  endfacet
  facet normal -0 0 1
    outer loop
      vertex 0 12 13
      vertex 26.1162 10.9573 13
      vertex 26.6635 12 13
    endloop
  endfacet
  facet normal 0 0 1
    outer loop
      vertex 0 8 13
      vertex 26.1162 9.04274 13
      vertex 0 12 13
    endloop
  endfacet
  facet normal 0 0 1
    outer loop
      vertex 26.1162 9.04274 13
      vertex 0 8 13
      vertex 26.6635 8 13
    endloop
  endfacet
  facet normal 0 0 1
    outer loop
      vertex 566 12 13
      vertex 540 10 13
      vertex 566 8 13
    endloop
  endfacet
  facet normal 0 0 1
    outer loop
      vertex 566 12 13
      vertex 539.542 11.8589 13
      vertex 540 10 13
    endloop
  endfacet
  facet normal 0 -0 1
    outer loop
      vertex 539.542 11.8589 13
      vertex 566 12 13
      vertex 539.417 12 13
    endloop
  endfacet
  facet normal -0 0 1
    outer loop
      vertex 539.542 8.14111 13
      vertex 566 8 13
      vertex 540 10 13
    endloop
  endfacet
  facet normal 0 0 1
    outer loop
      vertex 566 8 13
      vertex 539.542 8.14111 13
      vertex 539.417 8 13
    endloop
  endfacet
  facet normal 0 0 1
    outer loop
      vertex 532.116 10.9573 13
      vertex 34 10 13
      vertex 532.116 9.04274 13
    endloop
  endfacet
  facet normal -0 0 1
    outer loop
      vertex 33.5418 11.8589 13
      vertex 532.116 10.9573 13
      vertex 532.664 12 13
    endloop
  endfacet
  facet normal 0 0 1
    outer loop
      vertex 532.116 10.9573 13
      vertex 33.5418 11.8589 13
      vertex 34 10 13
    endloop
  endfacet
  facet normal 0 -0 1
    outer loop
      vertex 33.5418 11.8589 13
      vertex 532.664 12 13
      vertex 33.4168 12 13
    endloop
  endfacet
  facet normal 0 0 1
    outer loop
      vertex 33.5418 8.14111 13
      vertex 532.116 9.04274 13
      vertex 34 10 13
    endloop
  endfacet
  facet normal 0 0 1
    outer loop
      vertex 532.116 9.04274 13
      vertex 33.5418 8.14111 13
      vertex 532.664 8 13
    endloop
  endfacet
  facet normal 0 0 1
    outer loop
      vertex 532.664 8 13
      vertex 33.5418 8.14111 13
      vertex 33.4168 8 13
    endloop
  endfacet
  facet normal 0 1 -0
    outer loop
      vertex 26.6635 8 13
      vertex 0 8 24
      vertex 26.6635 8 24
    endloop
  endfacet
  facet normal 0 1 0
    outer loop
      vertex 0 8 24
      vertex 26.6635 8 13
      vertex 0 8 13
    endloop
  endfacet
  facet normal 0 1 -0
    outer loop
      vertex 566 8 13
      vertex 539.417 8 24
      vertex 566 8 24
    endloop
  endfacet
  facet normal 0 1 0
    outer loop
      vertex 539.417 8 24
      vertex 566 8 13
      vertex 539.417 8 13
    endloop
  endfacet
  facet normal 0 1 -0
    outer loop
      vertex 532.664 8 13
      vertex 33.4168 8 24
      vertex 532.664 8 24
    endloop
  endfacet
  facet normal 0 1 0
    outer loop
      vertex 33.4168 8 24
      vertex 532.664 8 13
      vertex 33.4168 8 13
    endloop
  endfacet
  facet normal -0.970939 -0.239327 0
    outer loop
      vertex 34 10 0
      vertex 33.5418 11.8589 13
      vertex 33.5418 11.8589 0
    endloop
  endfacet
  facet normal -0.970939 -0.239327 0
    outer loop
      vertex 33.5418 11.8589 13
      vertex 34 10 0
      vertex 34 10 13
    endloop
  endfacet
  facet normal 1 -0 0
    outer loop
      vertex 26.1162 9.04274 13
      vertex 26.1162 10.9573 0
      vertex 26.1162 10.9573 13
    endloop
  endfacet
  facet normal 1 0 0
    outer loop
      vertex 26.1162 10.9573 0
      vertex 26.1162 9.04274 13
      vertex 26.1162 9.04274 0
    endloop
  endfacet
  facet normal 0.120505 -0.992713 0
    outer loop
      vertex 28.5816 13.7401 0
      vertex 30.4821 13.9708 24
      vertex 28.5816 13.7401 24
    endloop
  endfacet
  facet normal 0.120505 -0.992713 0
    outer loop
      vertex 30.4821 13.9708 24
      vertex 28.5816 13.7401 0
      vertex 30.4821 13.9708 0
    endloop
  endfacet
  facet normal -0.748518 -0.663115 0
    outer loop
      vertex 32.2723 13.2919 0
      vertex 33.4168 12 13
      vertex 32.2723 13.2919 24
    endloop
  endfacet
  facet normal -0.748518 -0.663115 5.82614e-08
    outer loop
      vertex 33.5418 11.8589 0
      vertex 33.4168 12 13
      vertex 32.2723 13.2919 0
    endloop
  endfacet
  facet normal -0.74852 -0.663112 0
    outer loop
      vertex 33.4168 12 13
      vertex 33.5418 11.8589 0
      vertex 33.5418 11.8589 13
    endloop
  endfacet
  facet normal -0.748518 -0.663115 0
    outer loop
      vertex 32.2723 13.2919 24
      vertex 33.4168 12 13
      vertex 33.4168 12 24
    endloop
  endfacet
  facet normal 0.56808 -0.822974 0
    outer loop
      vertex 27.006 12.6525 0
      vertex 28.5816 13.7401 24
      vertex 27.006 12.6525 24
    endloop
  endfacet
  facet normal 0.56808 -0.822974 0
    outer loop
      vertex 28.5816 13.7401 24
      vertex 27.006 12.6525 0
      vertex 28.5816 13.7401 0
    endloop
  endfacet
  facet normal -0.970939 0.239328 0
    outer loop
      vertex 33.5418 8.14111 0
      vertex 34 10 13
      vertex 34 10 0
    endloop
  endfacet
  facet normal -0.970939 0.239328 0
    outer loop
      vertex 34 10 13
      vertex 33.5418 8.14111 0
      vertex 33.5418 8.14111 13
    endloop
  endfacet
  facet normal -0.35459 -0.935022 0
    outer loop
      vertex 30.4821 13.9708 0
      vertex 32.2723 13.2919 24
      vertex 30.4821 13.9708 24
    endloop
  endfacet
  facet normal -0.35459 -0.935022 -0
    outer loop
      vertex 32.2723 13.2919 24
      vertex 30.4821 13.9708 0
      vertex 32.2723 13.2919 0
    endloop
  endfacet
  facet normal 0.885433 -0.464767 0
    outer loop
      vertex 26.6635 12 13
      vertex 27.006 12.6525 24
      vertex 26.6635 12 24
    endloop
  endfacet
  facet normal 0.885433 -0.464767 0
    outer loop
      vertex 27.006 12.6525 24
      vertex 26.6635 12 13
      vertex 27.006 12.6525 0
    endloop
  endfacet
  facet normal 0.885439 -0.464756 0
    outer loop
      vertex 26.1162 10.9573 0
      vertex 26.6635 12 13
      vertex 26.1162 10.9573 13
    endloop
  endfacet
  facet normal 0.885437 -0.46476 4.62052e-07
    outer loop
      vertex 26.6635 12 13
      vertex 26.1162 10.9573 0
      vertex 27.006 12.6525 0
    endloop
  endfacet
  facet normal 0.88543 0.464773 0
    outer loop
      vertex 26.6635 8 24
      vertex 27.006 7.34751 24
      vertex 26.6635 8 13
    endloop
  endfacet
  facet normal 0.885446 0.464742 0
    outer loop
      vertex 26.6635 8 13
      vertex 26.1162 9.04274 0
      vertex 26.1162 9.04274 13
    endloop
  endfacet
  facet normal 0.88544 0.464754 1.23238e-06
    outer loop
      vertex 26.6635 8 13
      vertex 27.006 7.34751 0
      vertex 26.1162 9.04274 0
    endloop
  endfacet
  facet normal 0.88543 0.464773 -0
    outer loop
      vertex 27.006 7.34751 0
      vertex 26.6635 8 13
      vertex 27.006 7.34751 24
    endloop
  endfacet
  facet normal -0.748544 0.663085 0
    outer loop
      vertex 33.5418 8.14111 0
      vertex 33.4168 8 13
      vertex 33.5418 8.14111 13
    endloop
  endfacet
  facet normal -0.748529 0.663102 3.17217e-07
    outer loop
      vertex 32.2723 6.70806 0
      vertex 33.4168 8 13
      vertex 33.5418 8.14111 0
    endloop
  endfacet
  facet normal -0.748528 0.663104 0
    outer loop
      vertex 32.2723 6.70806 24
      vertex 33.4168 8 13
      vertex 32.2723 6.70806 0
    endloop
  endfacet
  facet normal -0.748528 0.663104 0
    outer loop
      vertex 33.4168 8 13
      vertex 32.2723 6.70806 24
      vertex 33.4168 8 24
    endloop
  endfacet
  facet normal 0.568072 0.822979 -0
    outer loop
      vertex 28.5816 6.25993 0
      vertex 27.006 7.34751 24
      vertex 28.5816 6.25993 24
    endloop
  endfacet
  facet normal 0.568072 0.822979 0
    outer loop
      vertex 27.006 7.34751 24
      vertex 28.5816 6.25993 0
      vertex 27.006 7.34751 0
    endloop
  endfacet
  facet normal -0.35459 0.935022 0
    outer loop
      vertex 32.2723 6.70806 0
      vertex 30.4821 6.02916 24
      vertex 32.2723 6.70806 24
    endloop
  endfacet
  facet normal -0.35459 0.935022 0
    outer loop
      vertex 30.4821 6.02916 24
      vertex 32.2723 6.70806 0
      vertex 30.4821 6.02916 0
    endloop
  endfacet
  facet normal 0.120541 0.992708 -0
    outer loop
      vertex 30.4821 6.02916 0
      vertex 28.5816 6.25993 24
      vertex 30.4821 6.02916 24
    endloop
  endfacet
  facet normal 0.120541 0.992708 0
    outer loop
      vertex 28.5816 6.25993 24
      vertex 30.4821 6.02916 0
      vertex 28.5816 6.25993 0
    endloop
  endfacet
  facet normal -0.970963 -0.239228 0
    outer loop
      vertex 540 10 0
      vertex 539.542 11.8589 13
      vertex 539.542 11.8589 0
    endloop
  endfacet
  facet normal -0.970963 -0.239228 0
    outer loop
      vertex 539.542 11.8589 13
      vertex 540 10 0
      vertex 540 10 13
    endloop
  endfacet
  facet normal 1 -0 0
    outer loop
      vertex 532.116 9.04274 13
      vertex 532.116 10.9573 0
      vertex 532.116 10.9573 13
    endloop
  endfacet
  facet normal 1 0 0
    outer loop
      vertex 532.116 10.9573 0
      vertex 532.116 9.04274 13
      vertex 532.116 9.04274 0
    endloop
  endfacet
  facet normal 0.120536 -0.992709 0
    outer loop
      vertex 534.582 13.7401 0
      vertex 536.482 13.9708 24
      vertex 534.582 13.7401 24
    endloop
  endfacet
  facet normal 0.120536 -0.992709 0
    outer loop
      vertex 536.482 13.9708 24
      vertex 534.582 13.7401 0
      vertex 536.482 13.9708 0
    endloop
  endfacet
  facet normal -0.748374 -0.663277 0
    outer loop
      vertex 538.272 13.2919 0
      vertex 539.417 12 13
      vertex 538.272 13.2919 24
    endloop
  endfacet
  facet normal -0.748388 -0.663261 2.89248e-06
    outer loop
      vertex 539.542 11.8589 0
      vertex 539.417 12 13
      vertex 538.272 13.2919 0
    endloop
  endfacet
  facet normal -0.74852 -0.663112 0
    outer loop
      vertex 539.417 12 13
      vertex 539.542 11.8589 0
      vertex 539.542 11.8589 13
    endloop
  endfacet
  facet normal -0.748374 -0.663277 0
    outer loop
      vertex 538.272 13.2919 24
      vertex 539.417 12 13
      vertex 539.417 12 24
    endloop
  endfacet
  facet normal 0.567982 -0.823041 0
    outer loop
      vertex 533.006 12.6525 0
      vertex 534.582 13.7401 24
      vertex 533.006 12.6525 24
    endloop
  endfacet
  facet normal 0.567982 -0.823041 0
    outer loop
      vertex 534.582 13.7401 24
      vertex 533.006 12.6525 0
      vertex 534.582 13.7401 0
    endloop
  endfacet
  facet normal -0.970963 0.239229 0
    outer loop
      vertex 539.542 8.14111 0
      vertex 540 10 13
      vertex 540 10 0
    endloop
  endfacet
  facet normal -0.970963 0.239229 0
    outer loop
      vertex 540 10 13
      vertex 539.542 8.14111 0
      vertex 539.542 8.14111 13
    endloop
  endfacet
  facet normal -0.354624 -0.935009 0
    outer loop
      vertex 536.482 13.9708 0
      vertex 538.272 13.2919 24
      vertex 536.482 13.9708 24
    endloop
  endfacet
  facet normal -0.354624 -0.935009 -0
    outer loop
      vertex 538.272 13.2919 24
      vertex 536.482 13.9708 0
      vertex 538.272 13.2919 0
    endloop
  endfacet
  facet normal 0.885709 0.464241 0
    outer loop
      vertex 532.664 8 24
      vertex 533.006 7.34751 24
      vertex 532.664 8 13
    endloop
  endfacet
  facet normal 0.885202 0.465208 0
    outer loop
      vertex 532.664 8 13
      vertex 532.116 9.04274 0
      vertex 532.116 9.04274 13
    endloop
  endfacet
  facet normal 0.885397 0.464836 -3.80643e-05
    outer loop
      vertex 532.664 8 13
      vertex 533.006 7.34751 0
      vertex 532.116 9.04274 0
    endloop
  endfacet
  facet normal 0.885709 0.464241 -0
    outer loop
      vertex 533.006 7.34751 0
      vertex 532.664 8 13
      vertex 533.006 7.34751 24
    endloop
  endfacet
  facet normal -0.748544 0.663085 0
    outer loop
      vertex 539.542 8.14111 0
      vertex 539.417 8 13
      vertex 539.542 8.14111 13
    endloop
  endfacet
  facet normal -0.7484 0.663248 3.15153e-06
    outer loop
      vertex 538.272 6.70806 0
      vertex 539.417 8 13
      vertex 539.542 8.14111 0
    endloop
  endfacet
  facet normal -0.748384 0.663266 0
    outer loop
      vertex 538.272 6.70806 24
      vertex 539.417 8 13
      vertex 538.272 6.70806 0
    endloop
  endfacet
  facet normal -0.748384 0.663266 0
    outer loop
      vertex 539.417 8 13
      vertex 538.272 6.70806 24
      vertex 539.417 8 24
    endloop
  endfacet
  facet normal 0.885712 -0.464235 0
    outer loop
      vertex 532.664 12 13
      vertex 533.006 12.6525 24
      vertex 532.664 12 24
    endloop
  endfacet
  facet normal 0.885712 -0.464235 0
    outer loop
      vertex 533.006 12.6525 24
      vertex 532.664 12 13
      vertex 533.006 12.6525 0
    endloop
  endfacet
  facet normal 0.885194 -0.465222 0
    outer loop
      vertex 532.116 10.9573 0
      vertex 532.664 12 13
      vertex 532.116 10.9573 13
    endloop
  endfacet
  facet normal 0.885394 -0.464842 -3.88346e-05
    outer loop
      vertex 532.664 12 13
      vertex 532.116 10.9573 0
      vertex 533.006 12.6525 0
    endloop
  endfacet
  facet normal 0.567975 0.823046 -0
    outer loop
      vertex 534.582 6.25993 0
      vertex 533.006 7.34751 24
      vertex 534.582 6.25993 24
    endloop
  endfacet
  facet normal 0.567975 0.823046 0
    outer loop
      vertex 533.006 7.34751 24
      vertex 534.582 6.25993 0
      vertex 533.006 7.34751 0
    endloop
  endfacet
  facet normal -0.354624 0.935009 0
    outer loop
      vertex 538.272 6.70806 0
      vertex 536.482 6.02916 24
      vertex 538.272 6.70806 24
    endloop
  endfacet
  facet normal -0.354624 0.935009 0
    outer loop
      vertex 536.482 6.02916 24
      vertex 538.272 6.70806 0
      vertex 536.482 6.02916 0
    endloop
  endfacet
  facet normal 0.120572 0.992705 -0
    outer loop
      vertex 536.482 6.02916 0
      vertex 534.582 6.25993 24
      vertex 536.482 6.02916 24
    endloop
  endfacet
  facet normal 0.120572 0.992705 0
    outer loop
      vertex 534.582 6.25993 24
      vertex 536.482 6.02916 0
      vertex 534.582 6.25993 0
    endloop
  endfacet
endsolid OpenSCAD_Model
